{
    "key": "group_6077ba72b2dce",
    "title": "Section Details",
    "fields": [
        {
            "key": "field_6077ba91f0bff",
            "label": "Section Color",
            "name": "section_color",
            "type": "select",
            "instructions": "",
            "required": 0,
            "conditional_logic": 0,
            "wrapper": {
                "width": "",
                "class": "",
                "id": ""
            },
            "choices": {
                "wpi-red": "WPI Red",
                "blue": "Blue",
                "black": "Black",
                "navy-blue": "Navy Blue",
                "purple": "Purple",
                "green": "Green",
                "gray": "Gray",
                "orange-red": "Orange Red",
                "yellow": "Yellow"
            },
            "default_value": "wpi-red",
            "allow_null": 0,
            "multiple": 0,
            "ui": 0,
            "return_format": "value",
            "ajax": 0,
            "placeholder": ""
        }
    ],
    "location": [
        [
            {
                "param": "taxonomy",
                "operator": "==",
                "value": "section"
            }
        ]
    ],
    "menu_order": 0,
    "position": "normal",
    "style": "default",
    "label_placement": "top",
    "instruction_placement": "label",
    "hide_on_screen": "",
    "active": 1,
    "description": "",
    "modified": 1619800842
}