<svg xmlns="http://www.w3.org/2000/svg" width="15.621" height="28.243" viewBox="0 0 15.621 28.243">
  <path id="Path_4" data-name="Path 4" d="M0,0-12,12,0,24" transform="translate(13.5 2.121)" fill="none" stroke="#fff" stroke-linecap="round" stroke-linejoin="round" stroke-miterlimit="10" stroke-width="3"/>
</svg>
