<?xml version="1.0" encoding="UTF-8"?>
<svg width="47px" height="89px" viewBox="0 0 47 89" version="1.1" xmlns="http://www.w3.org/2000/svg" xmlns:xlink="http://www.w3.org/1999/xlink">
    <title>robot</title>
    <g id="Footer" stroke="none" stroke-width="1" fill="none" fill-rule="evenodd">
        <g id="Desktop-Footer" transform="translate(-696.000000, -224.000000)" fill="#FFFFFF">
            <g id="robot" transform="translate(696.000000, 224.000000)">
                <path d="M43.835,26.5968 C45.308,26.5968 46.504,27.7928 46.504,29.2648 L46.503,70.3778 C46.503,71.8518 45.307,73.0448 43.833,73.0448 L2.67,73.0448 C1.194,73.0448 4.97379915e-14,71.8528 4.97379915e-14,70.3788 L0.001,29.2658 C0.002,27.7928 1.196,26.5978 2.672,26.5978 L43.835,26.5968 Z M39.6413,29.4853 L6.8643,29.4853 C4.67124178,29.4853 2.8933,31.2611708 2.8933,33.4523 L2.8923,66.1902874 C2.8923,68.3814292 4.67024178,70.1573 6.8633,70.1573 L39.6403126,70.1563 C41.8331854,70.1563 43.6113,68.3806018 43.6113,66.1903 L43.6123,33.4513126 C43.6123,31.2609982 41.8341854,29.4853 39.6413,29.4853 Z M39.6413,30.3113 C41.3782495,30.3113 42.7863,31.717437 42.7863,33.4513 L42.7853,66.1902874 C42.7853,67.924163 41.3772495,69.3303 39.6403,69.3303 L6.8632874,69.3313 C5.12621361,69.3313 3.7183,67.9250264 3.7183,66.1903 L3.7193,33.4523126 C3.7193,31.7175736 5.12721361,30.3113 6.8643,30.3113 L39.6413,30.3113 Z M18.5394,47.4966 L17.6744,47.4966 L16.6454,50.6136 L15.6954,47.5106 L14.6134,47.5106 L16.1794,52.1246 L17.0574,52.1246 L18.0934,49.1266 L19.1284,52.1246 L20.0074,52.1246 L21.5734,47.5106 L20.5184,47.5106 L19.5684,50.6136 L18.5394,47.4966 Z M25.5045,47.5101 L23.6305,47.5101 L23.6305,52.0921 L24.6395,52.0921 L24.6405,50.7171 L25.4065,50.7171 C26.4355,50.7171 27.2615,50.1681 27.2615,49.1071 L27.2615,49.1071 L27.2615,49.0941 C27.2615,48.1581 26.5995,47.5101 25.5045,47.5101 L25.5045,47.5101 Z M30.3743,47.5106 L29.3653,47.5106 L29.3653,52.0926 L30.3743,52.0926 L30.3743,47.5106 Z M25.4195,48.4201 C25.9245,48.4201 26.2395,48.6621 26.2395,49.1141 L26.2395,49.1141 L26.2395,49.1271 C26.2395,49.5191 25.9445,49.8211 25.4395,49.8211 L25.4395,49.8211 L24.6405,49.8211 L24.6405,48.4201 Z" id="Combined-Shape"></path>
                <path d="M39.8429,85.1385 L7.2649,85.1385 C5.0999,85.1385 3.3439,83.3845 3.3439,81.2215 C3.3439,79.0585 5.0999,77.3055 7.2649,77.3055 L39.8429,77.3045 C42.0089,77.3045 43.7649,79.0585 43.7639004,81.2215 C43.7639004,83.3845 42.0089,85.1385 39.8429,85.1385 M46.7299,81.3565 C46.7299,80.6875 46.1399,80.3755 45.5969,80.2105 C45.5879,80.1595 45.5779,80.1075 45.5679,80.0555 C46.0029,79.6965 46.4279,79.1815 46.1689,78.5625 C46.0689,78.3265 45.7879,77.9275 45.0229,77.9275 C44.9239,77.9275 44.8149,77.9335 44.6969,77.9455 C44.6739,77.9095 44.6499,77.8735 44.6259,77.8385 C44.8879,77.3445 45.0809,76.7135 44.6099,76.2425 C44.4249,76.0575 44.1719,75.9565 43.8969,75.9565 C43.6469,75.9565 43.3709,76.0385 43.0219,76.2225 C42.9709,76.1885 42.9199,76.1535 42.8689,76.1195 C42.9179,75.5665 42.8499,74.9155 42.2359,74.6635 C42.1189,74.6175 41.9959,74.5925 41.8699,74.5925 C41.4469,74.5925 41.1039,74.8435 40.7669,75.2525 C40.7199,75.2425 40.6739,75.2345 40.6269,75.2255 C40.4619,74.6975 40.1519,74.1235 39.4889,74.1235 C38.8599,74.1235 38.5489,74.6405 38.3779,75.1455 L38.0319,75.1455 C37.8609,74.6405 37.5499,74.1235 36.9209,74.1235 C36.2919,74.1235 35.9809,74.6405 35.8089,75.1455 L35.5719,75.1455 C35.4019,74.6405 35.0899,74.1235 34.4609,74.1235 C33.8319,74.1235 33.5199,74.6405 33.3489,75.1455 L33.1119,75.1455 C32.9409,74.6405 32.6299,74.1235 32.0009,74.1235 C31.3719,74.1235 31.0599,74.6405 30.8889,75.1465 L30.6519,75.1465 C30.4809,74.6405 30.1699,74.1235 29.5409,74.1235 C28.9119,74.1235 28.5999,74.6405 28.4289,75.1465 L28.1919,75.1465 C28.0209,74.6405 27.7089,74.1235 27.0809,74.1235 C26.4519,74.1235 26.1399,74.6405 25.9689,75.1465 L25.7319,75.1465 C25.5609,74.6405 25.2489,74.1235 24.6199,74.1235 C23.9919,74.1235 23.6799,74.6405 23.5089,75.1465 L23.2719,75.1465 C23.1009,74.6405 22.7889,74.1235 22.1599,74.1235 C21.5309,74.1235 21.2199,74.6405 21.0489,75.1465 L20.8119,75.1465 C20.6409,74.6405 20.3289,74.1235 19.6999,74.1235 C19.0719,74.1235 18.7599,74.6405 18.5889,75.1465 L18.3519,75.1465 C18.1789,74.6395 17.8669,74.1235 17.2399,74.1235 C16.6079,74.1235 16.2959,74.6475 16.1249,75.1585 L15.8959,75.1585 C15.7249,74.6475 15.4119,74.1235 14.7799,74.1235 C14.1479,74.1235 13.8359,74.6475 13.6649,75.1585 L13.4349,75.1585 C13.2639,74.6475 12.9519,74.1235 12.3199,74.1235 C11.6879,74.1235 11.3749,74.6475 11.2039,75.1585 L10.9749,75.1585 C10.8039,74.6475 10.4919,74.1235 9.8599,74.1235 C9.2279,74.1235 8.9149,74.6475 8.7439,75.1585 L8.5149,75.1585 C8.3559,74.6735 8.1019,74.2625 7.6149,74.1515 C7.6099,74.1495 7.6049,74.1485 7.5989,74.1475 C7.5709,74.1405 7.5419,74.1355 7.5139,74.1315 L7.4769,74.1235 L7.3919,74.1235 C7.3889,74.1235 7.3849,74.1235 7.3819,74.1245 L7.2859,74.1245 L7.2559,74.1325 C6.6669,74.2085 6.3849,74.7785 6.2319,75.2995 C6.1939,75.3065 6.1549,75.3145 6.1169,75.3225 C5.7609,74.8815 5.4039,74.6115 4.9679,74.6115 C4.8389,74.6115 4.7139,74.6355 4.5959,74.6855 C3.9679,74.9485 3.9159,75.6335 3.9799,76.2105 C3.9579,76.2245 3.9369,76.2395 3.9159,76.2535 C3.5409,76.0475 3.2469,75.9565 2.9849,75.9565 C2.7089,75.9565 2.4559,76.0585 2.2719,76.2425 C1.7919,76.7215 2.0009,77.3715 2.2759,77.8785 C2.2509,77.9145 2.2259,77.9515 2.2019,77.9895 C2.0739,77.9755 1.9579,77.9695 1.8519,77.9695 C1.1119,77.9695 0.8119,78.3205 0.6919,78.6145 C0.4359,79.2375 0.8719,79.7525 1.3169,80.1125 C1.3099,80.1435 1.3029,80.1755 1.2969,80.2065 C0.7499,80.3705 0.1509,80.6825 0.1509,81.3565 C0.1509,82.0265 0.7409,82.3375 1.2829,82.5015 C1.2929,82.5535 1.3019,82.6055 1.3139,82.6575 C0.8779,83.0165 0.4529,83.5315 0.7129,84.1505 C0.8119,84.3875 1.0929,84.7845 1.8589,84.7845 C1.9579,84.7845 2.0659,84.7795 2.1839,84.7675 C2.2079,84.8035 2.2309,84.8385 2.2549,84.8735 C1.9919,85.3675 1.7999,85.9985 2.2709,86.4705 C2.4559,86.6545 2.7089,86.7555 2.9839,86.7555 C3.2339,86.7555 3.5099,86.6735 3.8589,86.4905 C3.9089,86.5255 3.9609,86.5585 4.0119,86.5925 C3.9629,87.1465 4.0309,87.7965 4.6459,88.0485 C4.7619,88.0955 4.8849,88.1195 5.0109,88.1195 C5.4339,88.1195 5.7769,87.8685 6.1139,87.4595 C6.1599,87.4695 6.2069,87.4785 6.2539,87.4875 C6.4069,87.9785 6.6859,88.5075 7.2569,88.5795 L7.2879,88.5885 L7.3989,88.5885 L7.4099,88.5885 L7.4739,88.5885 L7.5079,88.5815 C7.5289,88.5785 7.5499,88.5765 7.5719,88.5715 L7.6059,88.5665 L7.6469,88.5545 C8.0949,88.4365 8.3439,88.0495 8.5079,87.5685 C8.5859,87.5685 8.6669,87.5685 8.7479,87.5675 C8.9189,88.0735 9.2309,88.5885 9.8599,88.5885 C10.4879,88.5885 10.7999,88.0725 10.9709,87.5665 L11.2079,87.5665 C11.3789,88.0725 11.6909,88.5885 12.3199,88.5885 C12.9479,88.5885 13.2599,88.0725 13.4309,87.5665 L13.6679,87.5665 C13.8389,88.0725 14.1509,88.5885 14.7799,88.5885 C15.4079,88.5885 15.7199,88.0725 15.8909,87.5665 L16.1279,87.5665 C16.2999,88.0725 16.6109,88.5885 17.2389,88.5885 C17.8679,88.5885 18.1799,88.0725 18.3509,87.5665 L18.5879,87.5665 C18.7599,88.0725 19.0709,88.5885 19.6999,88.5885 C20.3279,88.5885 20.6399,88.0725 20.8109,87.5665 L21.0489,87.5665 C21.2189,88.0725 21.5309,88.5885 22.1599,88.5885 C22.7919,88.5885 23.1049,88.0655 23.2759,87.5545 L23.5039,87.5545 C23.6759,88.0655 23.9879,88.5885 24.6199,88.5885 C25.2519,88.5885 25.5649,88.0655 25.7359,87.5545 L25.9649,87.5545 C26.1349,88.0655 26.4479,88.5885 27.0799,88.5885 C27.7119,88.5885 28.0249,88.0655 28.1959,87.5545 L28.4249,87.5545 C28.5949,88.0655 28.9079,88.5885 29.5399,88.5885 C30.1729,88.5885 30.4849,88.0655 30.6559,87.5545 L30.8849,87.5545 C31.0559,88.0655 31.3679,88.5885 31.9999,88.5885 C32.6329,88.5885 32.9449,88.0655 33.1159,87.5545 L33.3449,87.5545 C33.5159,88.0655 33.8279,88.5885 34.4599,88.5885 C35.0929,88.5885 35.4049,88.0655 35.5759,87.5545 L35.8049,87.5545 C35.9759,88.0655 36.2889,88.5885 36.9209,88.5885 C37.5519,88.5885 37.8649,88.0655 38.0359,87.5545 L38.3729,87.5545 C38.5449,88.0655 38.8569,88.5885 39.4889,88.5885 C40.1719,88.5885 40.4849,87.9725 40.6489,87.4135 C40.6869,87.4065 40.7249,87.3985 40.7639,87.3905 C41.1189,87.8305 41.4769,88.1015 41.9129,88.1015 C42.0419,88.1015 42.1669,88.0765 42.2849,88.0275 C42.9139,87.7645 42.9659,87.0785 42.9019,86.5015 C42.9229,86.4885 42.9439,86.4735 42.9649,86.4585 C43.3409,86.6635 43.6339,86.7555 43.8969,86.7555 C44.1719,86.7555 44.4249,86.6545 44.6099,86.4695 C45.0889,85.9915 44.8809,85.3415 44.6049,84.8335 C44.6299,84.7975 44.6549,84.7605 44.6789,84.7235 C44.8069,84.7375 44.9229,84.7425 45.0289,84.7425 C45.7689,84.7425 46.0689,84.3925 46.1889,84.0985 C46.4449,83.4755 46.0099,82.9595 45.5649,82.6005 C45.5719,82.5695 45.5779,82.5365 45.5839,82.5055 C46.1309,82.3415 46.7299,82.0305 46.7299,81.3565" id="Fill-7"></path>
                <path d="M39.6837,78.6747 C38.2747,78.6747 37.1327,79.8147 37.1327,81.2217 C37.1327,82.6287 38.2747,83.7697 39.6837,83.7697 C41.0917,83.7697 42.2337,82.6287 42.2337,81.2217 C42.2337,79.8147 41.0917,78.6747 39.6837,78.6747" id="Fill-9"></path>
                <path d="M31.5768,78.6747 C30.1678,78.6747 29.0258,79.8157 29.0258,81.2217 C29.0258,82.6287 30.1678,83.7697 31.5768,83.7697 C32.9848,83.7697 34.1268,82.6287 34.1268,81.2217 C34.1268,79.8157 32.9858,78.6747 31.5768,78.6747" id="Fill-11"></path>
                <path d="M23.4698,78.6747 C22.0608,78.6747 20.9198,79.8157 20.9188,81.2217 C20.9188,82.6287 22.0608,83.7697 23.4698,83.7697 C24.8788,83.7697 26.0198,82.6287 26.0198,81.2217 C26.0198,79.8157 24.8788,78.6747 23.4698,78.6747" id="Fill-13"></path>
                <path d="M15.3629,78.6747 C13.9539,78.6747 12.8129,79.8157 12.8129,81.2217 C12.8129,82.6287 13.9539,83.7697 15.3629,83.7697 C16.7719,83.7697 17.9129,82.6287 17.9129,81.2217 C17.9129,79.8157 16.7719,78.6747 15.3629,78.6747" id="Fill-15"></path>
                <path d="M7.2564,78.6747 C5.8474,78.6747 4.7054,79.8157 4.7054,81.2227 C4.7054,82.6287 5.8474,83.7697 7.2564,83.7697 C8.6644,83.7697 9.8064,82.6287 9.8064,81.2217 C9.8064,79.8157 8.6644,78.6747 7.2564,78.6747" id="Fill-17"></path>
                <path d="M30.5113,23.1561 C29.8023,23.1561 29.2283,22.5831 29.2283,21.8751 C29.2283,21.1671 29.8033,20.5931 30.5113,20.5931 C31.2203,20.5931 31.7943,21.1671 31.7943,21.8751 C31.7943,22.5831 31.2203,23.1561 30.5113,23.1561 M22.7913,6.5971 L22.7913,8.4181 C20.9993,8.0681 19.6433,6.4891 19.6433,4.5981 C19.6433,2.4531 21.3913,0.7071 23.5393,0.7071 C25.6883,0.7071 27.4363,2.4531 27.4363,4.5981 C27.4363,6.4891 26.0793,8.0681 24.2883,8.4181 L24.2883,6.5971 C25.0993,6.2951 25.6783,5.5141 25.6783,4.5981 C25.6783,3.4191 24.7203,2.4631 23.5393,2.4631 C22.3593,2.4631 21.4013,3.4191 21.4013,4.5981 C21.4013,5.5141 21.9803,6.2951 22.7913,6.5971 M16.5673,23.1571 C15.8583,23.1571 15.2833,22.5831 15.2833,21.8751 C15.2833,21.1671 15.8583,20.5931 16.5673,20.5931 C17.2763,20.5931 17.8503,21.1671 17.8503,21.8751 C17.8503,22.5831 17.2763,23.1571 16.5673,23.1571 M24.2873,11.0741 L24.2883,9.1351 C26.4713,8.7771 28.1433,6.8801 28.1433,4.5981 C28.1443,2.0631 26.0783,0.0001 23.5403,0.0001 C21.0013,0.0001 18.9353,2.0631 18.9353,4.5981 C18.9353,6.8801 20.6073,8.7771 22.7913,9.1351 L22.7913,11.0741 C15.0963,11.4541 8.9233,17.6581 8.5323,25.3961 L38.5453,25.3961 C38.1563,17.6571 31.9823,11.4541 24.2873,11.0741" id="Fill-19"></path>
            </g>
        </g>
    </g>
</svg>