<?xml version="1.0" encoding="utf-8"?>
<svg width="15px" height="18px" viewBox="0 0 15 18" version="1.1" xmlns:xlink="http://www.w3.org/1999/xlink" xmlns="http://www.w3.org/2000/svg">
  <path d="M11.335 1.32301C13.0991 3.08703 13.0991 5.94707 11.335 7.71109C9.81882 9.22732 7.49285 9.4403 5.74913 8.35003L1.06468 13.0345L0 11.9698L4.62117 7.34864C3.19062 5.57482 3.29922 2.97077 4.94697 1.32301C6.71099 -0.441005 9.57103 -0.441005 11.335 1.32301ZM6.01165 6.6464C4.83564 5.47039 4.83564 3.5637 6.01165 2.38769C7.18766 1.21167 9.09435 1.21167 10.2704 2.38769C11.4464 3.5637 11.4464 5.47039 10.2704 6.6464C9.09435 7.82241 7.18766 7.82241 6.01165 6.6464ZM11.1724 13.6552L11.1724 10.5517L9.93104 10.5517L9.93104 13.6552L6.82759 13.6552L6.82759 14.8966L9.93104 14.8966L9.93104 18L11.1724 18L11.1724 14.8966L14.2759 14.8966L14.2759 13.6552L11.1724 13.6552Z" id="fill" fill="#1D1D21" fill-rule="evenodd" stroke="none" />
</svg>