<?xml version="1.0" encoding="utf-8"?>
<svg width="151px" height="50px" viewBox="0 0 151 50" version="1.1" xmlns:xlink="http://www.w3.org/1999/xlink" xmlns="http://www.w3.org/2000/svg">
  <desc>Created with Lunacy</desc>
  <defs>
    <path d="M0 0L16.0831 0L16.0831 35.8201L0 35.8201L0 0Z" transform="translate(0.3895017 0.06089701)" id="path_1" />
    <path d="M0 0L48.3538 0L48.3538 48.3523L0 48.3523L0 0Z" transform="translate(4.983389E-05 0.4848837)" id="path_2" />
    <clipPath id="mask_1">
      <use xlink:href="#path_1" />
    </clipPath>
    <clipPath id="mask_2">
      <use xlink:href="#path_2" />
    </clipPath>
  </defs>
  <g id="Group-115">
    <g id="Group-3" transform="translate(133.0565 6.49206)">
      <path d="M0 0L16.0831 0L16.0831 35.8201L0 35.8201L0 0Z" transform="translate(0.3895017 0.06089701)" id="Clip-2" fill="none" stroke="none" />
      <g clip-path="url(#mask_1)">
        <path d="M15.8661 2.21761L16.0834 2.19767L16.0834 0L0 0L0 2.19767L0.218272 2.21761C4.23488 2.58289 4.67591 2.77475 4.67591 7.30814L4.67591 28.513C4.67591 33.0458 4.23488 33.2377 0.218272 33.603L0 33.6229L0 35.8201L16.0834 35.8201L16.0834 33.6229L15.8661 33.603C11.8346 33.2367 11.4618 33.0718 11.4618 28.513L11.4618 7.30814C11.4618 2.74834 11.8346 2.58389 15.8661 2.21761" transform="translate(0.3895017 0.06089701)" id="Fill-1" fill="#FFFFFF" stroke="none" />
      </g>
    </g>
    <path d="M66.3015 0C70.7038 0 73.7367 0.687708 75.8447 2.16429C78.4754 4.07741 79.808 6.81379 79.808 10.2982C79.808 17.7703 74.0247 21.1056 68.6123 21.737C67.7846 21.8472 66.896 21.8472 66.2467 21.8472C65.5978 21.8472 64.7088 21.8472 63.8816 21.737C63.4819 21.6902 63.0817 21.6234 62.6806 21.5462L62.6806 28.513C62.6806 33.0703 63.1042 33.2347 67.6794 33.6035L67.8997 33.6209L67.8997 35.8201L51.2726 35.8201L51.2726 33.6229L51.4904 33.6035C55.5085 33.2377 55.948 33.0458 55.948 28.513L55.948 5.7588C55.948 3.81329 53.9686 2.27292 51.5243 2.27292C50.1792 2.27292 48.9762 2.80465 48.1655 3.64136C47.4189 4.41977 46.9022 5.65864 46.1925 7.76512C45.0762 10.8713 41.8819 20.5321 37.1731 36.4186L34.3794 36.4186L25.3674 11.5216L17.105 36.4186L14.3068 36.4186L4.76512 5.26545C3.6887 2.06561 0 2.18821 0 2.18821L0 0L15.5392 0L15.5392 2.19169C11.0422 2.49967 11.9153 4.85681 11.9153 4.85681L17.9148 25.342L25.9425 0.380731L28.5738 0.380731L37.6879 25.486C39.8571 18.5841 42.2556 9.62342 43.0146 6.43654C43.1238 5.97309 43.2085 5.55997 43.2658 5.20266C43.2932 5.08555 43.3057 4.95897 43.3057 4.83688C43.3057 3.44502 41.4982 2.30681 39.2013 2.19568L39.2013 0L66.3015 0ZM62.6806 18.4645C63.2551 18.7131 64.35 18.9762 65.7573 18.9762C66.8706 18.9762 72.4236 18.5651 72.4236 10.4616C72.4236 5.43638 69.7889 2.43638 65.3776 2.43638C64.1272 2.43638 63.4086 2.70897 63.1535 2.96412C62.8181 3.25316 62.6806 3.80033 62.6806 4.80648L62.6806 18.4645Z" transform="translate(52.26847 6.552907)" id="Fill-4" fill="#FFFFFF" fill-rule="evenodd" stroke="none" />
    <g id="Group-8" transform="translate(0 0.01365449)">
      <path d="M0 0L48.3538 0L48.3538 48.3523L0 48.3523L0 0Z" transform="translate(4.983389E-05 0.4848837)" id="Clip-7" fill="none" stroke="none" />
      <g clip-path="url(#mask_2)">
        <path d="M0 24.1769C0 10.8458 10.8463 0 24.1784 0C37.509 0 48.3538 10.8458 48.3538 24.1769C48.3538 37.5075 37.509 48.3528 24.1784 48.3528C10.8463 48.3528 0 37.5075 0 24.1769ZM1.15166 24.1769C1.15166 36.893 11.4618 47.2017 24.1784 47.2017C36.895 47.2017 47.2022 36.893 47.2022 24.1769C47.2022 11.4613 36.895 1.15216 24.1784 1.15216C11.4618 1.15216 1.15166 11.4613 1.15166 24.1769Z" transform="translate(4.983389E-05 0.4845847)" id="Fill-6" fill="#FFFFFF" fill-rule="evenodd" stroke="none" />
      </g>
    </g>
    <path d="M2.38267 3.16013C3.2129 2.69817 3.46008 1.83056 2.9433 0.900161C2.50526 0.115776 1.67104 -0.269938 0.803931 0.212454C-0.0263021 0.674414 -0.219159 1.61079 0.251771 2.45697C0.701771 3.26578 1.54845 3.62358 2.38267 3.16013ZM2.1335 2.63438C1.70592 2.87109 1.22901 2.62691 0.919545 2.06976C0.614562 1.5196 0.637485 0.96943 1.07254 0.727736C1.51307 0.481557 1.99396 0.785543 2.27951 1.29584C2.5845 1.84551 2.56656 2.39418 2.1335 2.63438Z" transform="translate(12.87652 5.534789)" id="Fill-9" fill="#FFFFFF" fill-rule="evenodd" stroke="none" />
    <path d="M2.12959 3.34708C1.98906 3.37498 1.67311 3.37399 1.29737 3.27631C0.215972 2.99674 -0.165257 2.17648 0.0639786 1.28545C0.33956 0.218007 1.25152 -0.174185 2.19886 0.0700007C2.56564 0.164187 2.82527 0.305217 2.93242 0.407874L2.64139 0.925649C2.5168 0.829469 2.33192 0.722825 2.07627 0.657044C1.52012 0.513024 0.997367 0.739768 0.817467 1.43545C0.655008 2.06186 0.92461 2.55073 1.55252 2.71269C1.76929 2.7695 2.01199 2.78744 2.17145 2.76452L2.12959 3.34708Z" transform="translate(27.88585 3.788787)" id="Fill-11" fill="#FFFFFF" stroke="none" />
    <path d="M1.04562 3.29325C0.917044 3.22947 0.666878 3.03611 0.427177 2.73113C-0.262524 1.85256 -0.0671755 0.968005 0.656413 0.398902C1.52352 -0.28133 2.48831 -0.0391377 3.09229 0.729301C3.32502 1.02681 3.44711 1.29741 3.47004 1.44342L2.92336 1.67913C2.88349 1.52714 2.80027 1.3308 2.63781 1.12199C2.28249 0.6695 1.72984 0.531959 1.16422 0.976477C0.655416 1.37465 0.571695 1.9293 0.971862 2.43761C1.1104 2.61501 1.29229 2.77697 1.43283 2.85472L1.04562 3.29325Z" transform="translate(38.4139 10.98924)" id="Fill-13" fill="#FFFFFF" stroke="none" />
    <path d="M2.04568 2.0733C1.97193 2.13409 1.90166 2.18443 1.83937 2.21532L2.55498 3.10536C2.3706 3.26183 2.18671 3.41931 2.00781 3.58227L0 1.09506C0.15 0.923629 0.378239 0.702865 0.724585 0.419808C1.07542 0.13725 1.3789 0.00220046 1.65548 0.0002071C1.92209 -0.00577297 2.19518 0.117815 2.39502 0.362998C2.59485 0.609177 2.68804 0.885755 2.64817 1.14738C2.59834 1.48326 2.38106 1.8017 2.04568 2.0733ZM0.884551 1.03775L1.48605 1.77978C1.54336 1.75087 1.60166 1.70951 1.68837 1.64124C1.99037 1.39556 2.05365 1.09107 1.84734 0.838413C1.65997 0.607682 1.38887 0.599709 1.10183 0.832433C0.989701 0.922632 0.917442 0.992898 0.884551 1.03775Z" transform="translate(9.787176 7.514444)" id="Fill-15" fill="#FFFFFF" fill-rule="evenodd" stroke="none" />
    <path d="M2.99701 2.66512L2.77924 2.07508L1.56927 2.50664L0.677741 0C0.449003 0.0832226 0.224751 0.175415 0 0.265615L1.09435 3.32641C1.71179 3.07176 2.34668 2.85299 2.99701 2.66512" transform="translate(16.08613 4.353987)" id="Fill-17" fill="#FFFFFF" stroke="none" />
    <path d="M1.64203 3.50083C1.87874 3.44701 2.11495 3.39767 2.35465 3.35133L2.07907 2.05166L2.70698 0C2.44684 0.0368771 2.1902 0.0807309 1.93405 0.126578L1.77259 0.983721C1.72575 1.2289 1.68937 1.42774 1.66046 1.63954L1.65 1.64153C1.53189 1.45116 1.42575 1.29618 1.27973 1.08787L0.767442 0.370266C0.509801 0.430565 0.254153 0.496346 0 0.566113L1.37043 2.22359L1.64203 3.50083Z" transform="translate(18.39299 3.271046)" id="Fill-19" fill="#FFFFFF" stroke="none" />
    <path d="M0.566611 2.99252L1.12724 2.21661C1.43771 1.78953 1.69784 1.41578 1.93405 1.05349L1.9485 1.06495C1.84934 1.46163 1.77857 1.92458 1.72973 2.31728L1.55183 3.71163C1.75714 3.87259 1.95947 4.03505 2.15731 4.20448L4.07741 1.56977C3.90698 1.42724 3.73106 1.29319 3.55515 1.15664L2.98056 1.93555C2.69252 2.33073 2.44684 2.69153 2.23106 3.06179L2.22309 3.05532C2.31777 2.67409 2.40349 2.23904 2.44934 1.85083L2.59834 0.451993C2.37309 0.296512 2.14734 0.146013 1.91811 0L0 2.63023C0.190864 2.74834 0.380731 2.86645 0.566611 2.99252" transform="translate(33.88714 6.444269)" id="Fill-21" fill="#FFFFFF" stroke="none" />
    <path d="M0.522757 2.83605L2.7887 0.506312C2.61777 0.333887 2.44136 0.165448 2.26495 0L0 2.32724C0.176412 2.49369 0.351827 2.66262 0.522757 2.83605" transform="translate(36.75947 8.959136)" id="Fill-23" fill="#FFFFFF" stroke="none" />
    <path d="M2.0392 3.43854C2.0407 3.43854 2.04319 3.43904 2.04518 3.43904L2.0995 2.83405C2.0995 2.83405 1.34601 2.73688 0.7799 2.68405L0.850664 1.93355C1.16113 1.96246 1.64203 2.0088 2.03621 2.06312L2.08904 1.46811C1.67143 1.41229 1.2289 1.36296 0.907475 1.33306L0.967774 0.686213C0.967774 0.686213 1.65747 0.746512 2.22458 0.822757L2.27791 0.194851C1.61362 0.100166 0.952824 0.0333887 0.29701 0L0 3.2407C0.675249 3.2696 1.35498 3.33189 2.0392 3.43854" transform="translate(24.96578 3.077342)" id="Fill-25" fill="#FFFFFF" stroke="none" />
    <path d="M0 0.136328L0.0328904 0.793637C0.32691 0.761743 0.673754 0.733338 0.904983 0.714899L1.04352 3.30277C1.28571 3.28384 1.52791 3.26889 1.7696 3.26141L1.63106 0.667557C1.63106 0.667557 2.02625 0.652607 2.50963 0.655597L2.47924 0.000281187C1.65149 -0.00420386 0.824252 0.0451317 0 0.136328" transform="translate(21.78797 3.052244)" id="Fill-27" fill="#FFFFFF" stroke="none" />
    <path d="M3.14252 0.788372L2.59884 1.96346C2.16179 1.74618 1.77907 1.57027 1.50997 1.45116L2.05266 0.277575C1.8289 0.180897 1.60216 0.0901993 1.37392 0L0 2.95066C0.227741 3.03688 0.454485 3.12658 0.678738 3.22176L1.25581 2.00332C1.68837 2.19169 2.07209 2.37708 2.34568 2.51362L1.7686 3.73455C1.98588 3.84468 2.20017 3.95731 2.41296 4.07591L3.79037 1.12126C3.57708 1.00615 3.3593 0.898007 3.14252 0.788372" transform="translate(30.71218 4.547342)" id="Fill-29" fill="#FFFFFF" stroke="none" />
    <path d="M0.755553 0.207594C0.665852 0.404936 0.584125 0.716896 0.604557 1.02836C0.623992 1.36224 0.774989 1.53068 0.985288 1.51922C1.18662 1.50726 1.29177 1.3458 1.4014 0.950617C1.55937 0.402943 1.83496 0.030684 2.30489 0.00178038C2.85456 -0.0316083 3.29957 0.406431 3.34542 1.16341C3.36835 1.53068 3.31153 1.80028 3.2328 1.99663L2.63977 1.86906C2.69459 1.74098 2.77134 1.50078 2.7509 1.18982C2.73246 0.873873 2.57449 0.729853 2.41104 0.739322C2.20472 0.752278 2.12698 0.936165 1.99343 1.36623C1.81751 1.94829 1.53695 2.22985 1.08246 2.25676C0.542264 2.29015 0.0573802 1.90693 0.00405795 1.02188C-0.0188656 0.653607 0.0588753 0.283342 0.148078 0.0954681L0.755553 0.207594Z" transform="translate(42.43179 22.33641)" id="Fill-31" fill="#FFFFFF" stroke="none" />
    <path d="M0.213599 0.682921C-0.197033 1.41897 -0.030089 2.08923 0.840509 2.57711L2.42423 3.45668C2.5543 3.25335 2.68387 3.04754 2.80945 2.83774L1.15845 1.9193C0.656622 1.63874 0.526057 1.32229 0.712934 0.988403C0.893831 0.667472 1.24516 0.616642 1.73503 0.890728L3.38054 1.81216C3.49367 1.59638 3.60779 1.38259 3.71244 1.16182L2.13669 0.279765C1.24217 -0.220069 0.612768 -0.0287072 0.213599 0.682921" transform="translate(39.96034 32.88439)" id="Fill-33" fill="#FFFFFF" stroke="none" />
    <path d="M0.274086 1.90714L3.28106 0.675747C3.19236 0.448505 3.10515 0.222757 3.00847 0L0 1.2304C0.0966777 1.45316 0.18588 1.6799 0.274086 1.90714" transform="translate(41.05375 16.16447)" id="Fill-35" fill="#FFFFFF" stroke="none" />
    <path d="M0.194851 1.42276L1.13123 1.19103C1.64352 1.06445 2.08306 0.946844 2.49568 0.820266L2.50067 0.838206C2.17076 1.07841 1.81645 1.38787 1.52741 1.65648L0.494851 2.61927C0.548173 2.87193 0.595017 3.12608 0.638871 3.38322L3.79984 2.60482C3.75897 2.38355 3.7191 2.16179 3.67276 1.94252L2.7299 2.17027C2.25449 2.28688 1.83488 2.40498 1.43023 2.549L1.42824 2.54003C1.74618 2.30781 2.09302 2.03123 2.37758 1.76262L3.39518 0.798339C3.32292 0.530233 3.24917 0.263621 3.16645 0L0 0.7799C0.0702658 0.991694 0.133057 1.20548 0.194851 1.42276" transform="translate(41.65515 18.21344)" id="Fill-37" fill="#FFFFFF" stroke="none" />
    <path d="M0.156478 0C0.108638 0.239203 0.0553156 0.475914 0 0.711628L3.17591 1.39585C3.23023 1.16013 3.28655 0.92392 3.33339 0.685216L0.156478 0Z" transform="translate(42.04879 28.25008)" id="Fill-39" fill="#FFFFFF" stroke="none" />
    <path d="M3.50781 1.34203L2.99701 0.926911C2.82459 1.16611 2.61329 1.44369 2.47226 1.62708L0.456479 0C0.308472 0.191861 0.156478 0.381229 0 0.56711L2.02176 2.19967C2.02176 2.19967 1.76861 2.50316 1.44219 2.85947L1.9515 3.27608C2.50714 2.66362 3.02292 2.01528 3.50781 1.34203" transform="translate(38.24781 35.92485)" id="Fill-41" fill="#FFFFFF" stroke="none" />
    <path d="M0.00498339 1.37492C0.00299003 1.37541 0.00199336 1.37691 0 1.3794L0.410631 1.82492C0.410631 1.82492 0.990199 1.33505 1.4093 0.950332L1.91761 1.50797C1.68738 1.71977 1.32857 2.04319 1.02409 2.29884L1.42874 2.73688C1.75116 2.46628 2.08505 2.17276 2.32425 1.95448L2.7613 2.43538C2.7613 2.43538 2.25249 2.90482 1.81345 3.27209L2.24252 3.73455C2.7588 3.30847 3.25365 2.86445 3.7211 2.40149L1.52392 0C1.0485 0.478904 0.543189 0.940365 0.00498339 1.37492" transform="translate(35.69851 37.61427)" id="Fill-43" fill="#FFFFFF" stroke="none" />
    <path d="M3.56312 0.243688L2.94319 0.0234219C2.85997 0.307475 2.75432 0.638372 2.68306 0.859136L0.239203 0C0.162458 0.232724 0.0847176 0.461462 0 0.688206L2.44884 1.54983C2.44884 1.54983 2.31429 1.9211 2.12541 2.36512L2.74335 2.58787C3.06379 1.82442 3.33339 1.04003 3.56312 0.243688" transform="translate(41.39566 30.4207)" id="Fill-45" fill="#FFFFFF" stroke="none" />
    <path d="M3.34236 0.0593023L2.68854 0C2.67658 0.296013 2.65615 0.642359 2.64169 0.874086L0.0612957 0.644352C0.0448505 0.887043 0.0254153 1.12924 0 1.37093L2.58588 1.60116C2.58588 1.60116 2.54502 1.99336 2.47226 2.47126L3.12708 2.53306C3.24817 1.71478 3.31694 0.888538 3.34236 0.0593023" transform="translate(42.43789 25.37203)" id="Fill-47" fill="#FFFFFF" stroke="none" />
    <path d="M3.01871 0C3.10791 0.113123 3.24944 0.396179 3.33316 0.775914C3.57635 1.86578 3.01771 2.5814 2.11821 2.78073C1.0408 3.02043 0.275848 2.38356 0.0635558 1.42924C-0.0191684 1.05897 -0.011195 0.762957 0.0311638 0.619934L0.62618 0.646346C0.597277 0.799834 0.585317 1.01362 0.641629 1.27027C0.76721 1.83339 1.20724 2.19668 1.9094 2.0407C2.5408 1.90017 2.85625 1.43721 2.71621 0.805316C2.66638 0.584552 2.57269 0.360299 2.48 0.227741L3.01871 0Z" transform="translate(2.892491 27.48409)" id="Fill-49" fill="#FFFFFF" stroke="none" />
    <path d="M2.04499 1.88023L2.12522 2.08106L3.28336 1.60963C3.38004 1.83239 3.47722 2.05266 3.58237 2.26944L0.62024 3.47093C0.496652 3.26761 0.34117 2.95814 0.193163 2.59485C0.013263 2.15083 -0.0460393 1.81196 0.036685 1.5309C0.104459 1.29169 0.278379 1.10631 0.553961 0.994684C0.930705 0.841694 1.30396 1.00664 1.5013 1.22741L1.51426 1.22193C1.51376 0.978239 1.66376 0.783389 1.90695 0.597508C2.13718 0.422093 2.39732 0.237209 2.68087 0C2.75762 0.243189 2.84034 0.48588 2.92855 0.724585C2.72472 0.9 2.5533 1.03355 2.32456 1.19253C1.9822 1.43073 1.93585 1.59917 2.04499 1.88023ZM0.669077 2.31379C0.735356 2.47824 0.7822 2.56744 0.816087 2.6103L1.63635 2.27741L1.52921 2.01179C1.39217 1.67492 1.1425 1.54186 0.881369 1.6495C0.610273 1.75814 0.542499 2.00233 0.669077 2.31379Z" transform="translate(4.007933 30.32437)" id="Fill-51" fill="#FFFFFF" fill-rule="evenodd" stroke="none" />
    <path d="M3.24219 0.00697674L3.24219 0L2.63472 0.0388704C2.63472 0.0388704 2.65415 0.798339 2.68953 1.36694L1.93704 1.4108C1.91661 1.09934 1.8902 0.61794 1.88322 0.219269L1.28671 0.259136C1.29668 0.679734 1.31412 1.12326 1.33355 1.44767L0.685216 1.48555C0.685216 1.48555 0.639369 0.793356 0.6299 0.222259L0 0.266113C0.00797342 0.935382 0.0418605 1.59917 0.109136 2.25349L3.35681 2.05216C3.28405 1.3804 3.24219 0.69917 3.24219 0.00697674" transform="translate(2.558073 24.66812)" id="Fill-53" fill="#FFFFFF" stroke="none" />
    <path d="M3.10514 0.748829C2.59235 -0.0510048 1.71128 -0.242367 0.814772 0.331719C0.059789 0.817102 -0.273101 1.67424 0.263111 2.50996C0.775902 3.30979 1.72225 3.44285 2.53703 2.92009C3.31643 2.41926 3.62092 1.55215 3.10514 0.748829ZM2.59633 1.02989C2.85996 1.44102 2.64567 1.93338 2.10846 2.27773C1.57922 2.6171 1.02906 2.62806 0.759457 2.20846C0.487862 1.78537 0.759457 1.28554 1.25182 0.969095C1.78105 0.629228 2.32922 0.613779 2.59633 1.02989Z" transform="translate(5.671506 33.8168)" id="Fill-55" fill="#FFFFFF" fill-rule="evenodd" stroke="none" />
    <path d="M2.41484 2.15581C2.53245 1.97492 2.66251 1.6789 2.69341 1.36944C2.7253 1.03505 2.60471 0.845183 2.39441 0.824751C2.19507 0.805316 2.06451 0.946844 1.89407 1.3196C1.65088 1.83538 1.32198 2.1598 0.854041 2.11395C0.30537 2.06113 -0.0643975 1.55831 0.00935661 0.803821C0.0447387 0.437043 0.141915 0.181395 0.251051 0L0.816666 0.219269C0.74341 0.336877 0.629788 0.561628 0.59939 0.871097C0.569489 1.18655 0.702546 1.35299 0.864506 1.36944C1.06883 1.38887 1.17696 1.22143 1.3753 0.817276C1.63992 0.270598 1.96135 0.0363787 2.41484 0.0807309C2.95304 0.134053 3.37065 0.58804 3.28494 1.4701C3.24956 1.83738 3.11351 2.1902 2.9959 2.36063L2.41484 2.15581Z" transform="translate(2.657354 21.60822)" id="Fill-57" fill="#FFFFFF" stroke="none" />
    <path d="M2.11993 1.89042L2.00183 2.07132L3.05432 2.74906C2.92674 2.95437 2.80415 3.16168 2.68505 3.37198L0 1.63178C0.0951827 1.41351 0.259635 1.10803 0.47392 0.778624C0.735548 0.376963 0.979236 0.134272 1.25631 0.0415812C1.49302 -0.0396481 1.74419 -0.002771 1.99336 0.160186C2.33472 0.381947 2.41196 0.781116 2.34468 1.07065L2.35615 1.07763C2.55698 0.938093 2.80116 0.949555 3.09518 1.04274C3.40465 1.14241 3.73355 1.25603 4.02857 1.33278C3.87359 1.5371 3.72259 1.7454 3.57757 1.9567C3.35781 1.90138 3.13605 1.83411 2.84452 1.72696C2.45282 1.58045 2.28787 1.63926 2.11993 1.89042ZM1.5603 1.78328L1.71678 1.54208C1.91512 1.2371 1.88023 0.956531 1.64402 0.802545C1.39834 0.642578 1.15914 0.727295 0.977243 1.00886C0.880565 1.15736 0.833223 1.24706 0.815282 1.29889L1.5603 1.78328Z" transform="translate(5.509386 12.23574)" id="Fill-59" fill="#FFFFFF" fill-rule="evenodd" stroke="none" />
    <path d="M4.03455 1.24286L2.84103 1.99435C2.55598 2.16827 2.30083 2.34867 2.00133 2.56345L1.99435 2.55598C2.23007 2.26993 2.40698 2.01927 2.59585 1.74518L3.38173 0.586545C3.20033 0.395183 3.02342 0.199336 2.85199 0L0 1.66246C0.154983 1.85233 0.315448 2.03422 0.47691 2.2191L1.59518 1.47857C1.9196 1.25332 2.23854 1.03754 2.52907 0.819269L2.53505 0.825747C2.31379 1.11329 2.10548 1.39485 1.88621 1.7108L1.07841 2.87691C1.25183 3.0593 1.42874 3.2397 1.60814 3.41661L2.77724 2.67259C3.1196 2.44684 3.45149 2.22807 3.73654 2.01927L3.74352 2.02575C3.54867 2.29286 3.2995 2.63472 3.07375 2.95814L2.30282 4.06894C2.4887 4.23688 2.67857 4.40083 2.87143 4.56129L4.62558 1.78455C4.42475 1.60764 4.22791 1.42774 4.03455 1.24286" transform="translate(7.441096 36.70729)" id="Fill-61" fill="#FFFFFF" stroke="none" />
    <path d="M3.81429 1.26429C3.81628 1.26229 3.81728 1.2613 3.81827 1.25831L3.26262 1.01412C3.26262 1.01412 2.92973 1.69635 2.69851 2.21611L2.0098 1.90864C2.13638 1.62458 2.33372 1.18355 2.51213 0.826246L1.96495 0.587043C1.77757 0.963289 1.5902 1.36744 1.45864 1.66346L0.865116 1.39784C0.865116 1.39784 1.14269 0.763954 1.39635 0.25216L0.818771 0C0.516777 0.598505 0.241196 1.20299 0 1.81445L2.97558 3.13306C3.21877 2.50266 3.49585 1.87874 3.81429 1.26429" transform="translate(4.000714 15.06847)" id="Fill-63" fill="#FFFFFF" stroke="none" />
    <path d="M0 2.40349L0.635382 2.56993C0.695681 2.2809 0.77392 1.94203 0.827243 1.71628L3.33239 2.37309C3.3902 2.13688 3.4495 1.90116 3.51478 1.66744L1.00365 1.01013C1.00365 1.01013 1.1088 0.628904 1.2593 0.17093L0.624917 0C0.368771 0.787375 0.163455 1.5897 0 2.40349" transform="translate(2.975681 18.01819)" id="Fill-65" fill="#FFFFFF" stroke="none" />
    <path d="M0.652325 0.607475L0.643355 0.605482L0 0.748505L0.00498339 0.189369L0.900498 0L1.48405 0.133057L0.790365 3.17193L0.102658 3.01346L0.652325 0.607475Z" transform="translate(19.03914 42.68233)" id="Fill-67" fill="#FFFFFF" stroke="none" />
    <path d="M0.237174 0.783098C0.213254 1.05569 0.338836 1.3218 0.625879 1.50619L0.62538 1.51615C0.273055 1.63526 0.0353471 1.87247 0.00295511 2.24522C-0.0349186 2.66632 0.2895 3.14223 1.07787 3.2125C1.79897 3.27629 2.30528 2.93592 2.35462 2.3718C2.3905 1.97413 2.14531 1.69406 1.8498 1.55203L1.85129 1.53708C2.17571 1.4125 2.34116 1.16184 2.36558 0.894726C2.39847 0.516985 2.13485 0.0699749 1.40877 0.00618752C0.787839 -0.0481314 0.28352 0.258845 0.237174 0.783098ZM1.32505 1.27944C1.08335 1.18077 0.909434 1.03127 0.926875 0.820971C0.944317 0.630108 1.08335 0.473131 1.33153 0.495556C1.60013 0.519477 1.69282 0.71931 1.67488 0.915158C1.65794 1.10652 1.49747 1.24605 1.32505 1.27944ZM1.6091 2.36383C1.63352 2.09124 1.44266 1.91034 1.16707 1.80968C0.922889 1.85552 0.768404 2.01499 0.749965 2.23924C0.72455 2.46399 0.878038 2.68924 1.15063 2.71316C1.40379 2.73559 1.59066 2.5836 1.6091 2.36383Z" transform="translate(21.15213 43.03918)" id="Fill-69" fill="#FFFFFF" fill-rule="evenodd" stroke="none" />
    <path d="M1.68108 0.589037C1.7957 0.571595 1.88191 0.56113 1.96464 0.56113L1.92627 0C1.85949 0 1.76779 0.000996678 1.63474 0.0244186C1.15284 0.0807309 0.755667 0.256146 0.468624 0.558638C0.149189 0.897508 -0.0337016 1.39983 0.0051688 1.98439C0.0550027 2.72542 0.502511 3.31645 1.33573 3.26063C2.0065 3.21628 2.44653 2.67658 2.40517 2.06063C2.36181 1.41379 1.89636 1.07492 1.3756 1.1088C1.08856 1.12824 0.873773 1.23339 0.731248 1.39734L0.716797 1.39884C0.774106 1.03405 1.03972 0.684219 1.68108 0.589037ZM1.17029 1.64203C1.48175 1.62159 1.65218 1.8593 1.67062 2.14684C1.69105 2.46279 1.54404 2.70797 1.28989 2.72542C0.955003 2.74684 0.778092 2.4608 0.741215 2.13239C0.736232 2.04618 0.741215 1.98787 0.762644 1.94252C0.819454 1.78605 0.97394 1.65498 1.17029 1.64203Z" transform="translate(24.3805 43.02483)" id="Fill-71" fill="#FFFFFF" fill-rule="evenodd" stroke="none" />
    <path d="M1.80449 0.584552L0.624917 0.844685L0.661794 1.32758C0.727077 1.30415 0.782392 1.2907 0.857642 1.27525C1.14817 1.21096 1.46213 1.21096 1.70731 1.31861C1.96993 1.42226 2.16678 1.64402 2.24452 2.00033C2.3701 2.56595 1.99336 3.17542 1.17359 3.35532C0.803821 3.43804 0.475914 3.4211 0.28804 3.36877L0.301495 2.80665C0.44701 2.84402 0.741529 2.86645 1.01811 2.80515C1.31362 2.74086 1.59618 2.53057 1.52442 2.20764C1.45515 1.89419 1.16512 1.75764 0.556645 1.8917C0.387209 1.92857 0.272591 1.96395 0.155482 2.0088L0 0.369768L1.67591 0L1.80449 0.584552Z" transform="translate(27.44108 42.52953)" id="Fill-73" fill="#FFFFFF" stroke="none" />
    <path d="M1.27724 0.637376C1.27724 0.990698 0.991196 1.27674 0.638372 1.27674C0.285548 1.27674 0 0.990698 0 0.637376C0 0.286047 0.285548 0 0.638372 0C0.991196 0 1.27724 0.286047 1.27724 0.637376" transform="translate(14.11311 41.7297)" id="Fill-75" fill="#FFFFFF" stroke="none" />
    <path d="M0 0.637376C0 0.990698 0.286046 1.27674 0.638371 1.27674C0.990696 1.27674 1.27724 0.990698 1.27724 0.637376C1.27724 0.286047 0.990696 0 0.638371 0C0.286046 0 0 0.286047 0 0.637376" transform="translate(32.79424 41.7297)" id="Fill-77" fill="#FFFFFF" stroke="none" />
    <path d="M0 0.181276L0 3.34922C0.309469 3.23161 0.968771 3.27247 1.58073 3.48277C2.11096 3.66566 2.38505 3.64922 2.71445 3.51566L2.71445 0.0885849C2.35316 0.241575 1.86528 0.334266 1.30166 0.136425C0.592525 -0.112246 0.183887 0.0257942 0 0.181276" transform="translate(19.27196 20.87304)" id="Fill-79" fill="#FFFFFF" stroke="none" />
    <path d="M1.45515 0.140175C0.874086 0.343995 0.372259 0.249311 0 0.0913376L0 3.52689C0.339867 3.66343 0.621429 3.68038 1.16811 3.4925C1.79801 3.27622 2.47674 3.23436 2.79518 3.35496L2.79518 0.187019C2.60631 0.0265535 2.18571 -0.115473 1.45515 0.140175" transform="translate(16.11448 20.86745)" id="Fill-81" fill="#FFFFFF" stroke="none" />
    <path d="M0 0.186661L0 3.3546C0.318438 3.234 0.997176 3.27586 1.62757 3.49214C2.17425 3.68052 2.45631 3.66357 2.79468 3.52653L2.79468 0.0914783C2.42292 0.248953 1.9211 0.343638 1.33953 0.139817C0.610465 -0.115332 0.189369 0.0266942 0 0.186661" transform="translate(29.30686 20.86766)" id="Fill-83" fill="#FFFFFF" stroke="none" />
    <path d="M1.41379 0.136567C0.84917 0.33391 0.362292 0.241717 0 0.0887269L0 3.5158C0.329402 3.64936 0.604485 3.6658 1.13422 3.48291C1.74618 3.27261 2.40548 3.23175 2.71445 3.34936L2.71445 0.181418C2.53156 0.0254379 2.12243 -0.112104 1.41379 0.136567" transform="translate(26.23017 20.873)" id="Fill-85" fill="#FFFFFF" stroke="none" />
    <path d="M4.03256 5.03857C4.97093 4.64339 5.0402 3.69256 5.0402 3.69256L5.30482 3.52362L5.30482 3.36067C5.0407 2.73176 4.38488 2.03508 3.80382 1.58708C3.41861 1.29056 3.41163 0.96515 3.4505 0.778272L3.58206 0.72196C3.71113 0.665648 3.78538 0.626279 3.901 0.689568C4.01611 0.752857 4.04801 0.712492 4.04801 0.712492C4.1392 0.673123 4.13571 0.483256 4.04153 0.287907C3.94635 0.0940529 3.79684 -0.0325252 3.70565 0.00734192C3.70565 0.00734192 3.65183 0.00285687 3.62791 0.12794C3.60449 0.252026 3.52375 0.278937 3.39419 0.335249L3.25316 0.397043C3.22625 0.380099 3.20731 0.370631 3.20731 0.370631C2.90532 0.235083 2.84203 0.416478 2.84203 0.416478C2.54053 0.281927 2.48422 0.506678 2.48422 0.506678C2.1598 0.431927 2.14336 0.644219 2.14336 0.644219C1.69834 0.643223 1.77508 0.926279 1.81246 1.02096L1.30166 1.24272L1.06694 0.746877L0.172924 1.13458L0.772924 2.40684L1.16412 2.56831L1.54186 2.40485L1.66744 2.01864L1.48455 1.63143L1.89219 1.45502C1.93854 1.58159 2.05864 1.72661 2.31678 1.74306C2.72542 1.76897 2.83754 1.67379 3.13655 2.36698C3.43605 3.05967 3.88057 3.31482 3.88057 3.31482C3.17591 3.24256 2.98505 3.81017 2.98505 3.81017C1.85831 3.76133 1.61013 4.59555 1.55731 5.03857L0 5.03857C0.0936877 5.22146 0.190864 5.39887 0.290033 5.5693L5.3691 5.5693C5.46927 5.39887 5.56595 5.22146 5.66013 5.03857L4.03256 5.03857Z" transform="translate(21.29148 27.0094)" id="Fill-87" fill="#FFFFFF" stroke="none" />
    <path d="M0.633887 1.01711C0.745514 0.695183 0.724584 0.32691 0.574584 0C0.320432 0.103156 0.121595 0.300997 0 0.550166C0.124086 0.844684 0.254153 1.12924 0.390697 1.39435C0.49186 1.28571 0.581561 1.16462 0.633887 1.01711" transform="translate(18.94734 32.15502)" id="Fill-89" fill="#FFFFFF" stroke="none" />
    <path d="M0.771927 1.08588C0.841196 0.719602 0.759967 0.326911 0.551163 0C0.271096 0.172425 0.0762458 0.455482 0 0.790366C0.178904 1.09535 0.355814 1.37442 0.523256 1.61861C0.64186 1.46412 0.73505 1.28871 0.771927 1.08588" transform="translate(19.69281 33.40171)" id="Fill-91" fill="#FFFFFF" stroke="none" />
    <path d="M0.56711 1.00714C0.719602 0.706146 0.743522 0.342359 0.634386 0C0.373754 0.0637874 0.154485 0.225249 0 0.446013C0.0757476 0.758472 0.16794 1.05847 0.26711 1.35199C0.386711 1.25781 0.494851 1.14867 0.56711 1.00714" transform="translate(18.37634 30.55854)" id="Fill-93" fill="#FFFFFF" stroke="none" />
    <path d="M0.428571 0.973256C0.621927 0.703156 0.695681 0.350332 0.633388 0C0.390199 0.0209302 0.174419 0.12309 0 0.278073C0.0089701 0.612957 0.033887 0.942857 0.0802325 1.26429C0.213289 1.19103 0.336379 1.10133 0.428571 0.973256" transform="translate(18.1358 28.87988)" id="Fill-95" fill="#FFFFFF" stroke="none" />
    <path d="M4.19281 9.23522C1.65129 6.52824 1.26457 3.49336 1.26906 1.89867L1.31192 1.85631C1.31192 1.85532 1.31142 1.85432 1.31142 1.85332C1.51026 1.66395 1.65129 1.41478 1.70012 1.12575C1.76441 0.743023 1.67172 0.336379 1.44697 0C1.14298 0.192857 0.934176 0.514286 0.871883 0.889535C0.815571 1.22691 0.885837 1.57924 1.05577 1.88821C1.01291 2.15233 0.985006 2.41395 0.974043 2.67259C0.944641 2.58638 0.912249 2.50166 0.865903 2.42143C0.680023 2.09402 0.381518 1.85083 0.036169 1.74369C-0.0455585 2.09352 0.0122488 2.47575 0.199126 2.80166C0.349126 3.06429 0.699458 3.35133 0.987498 3.49635C1.00793 3.77442 1.03883 4.0505 1.08866 4.3211C1.05876 4.27824 1.03335 4.23289 0.999458 4.19252C0.75876 3.90598 0.424873 3.72458 0.0735445 3.6897C0.0600893 4.05598 0.187664 4.42674 0.429857 4.71379C0.659591 4.98738 0.97504 5.1598 1.30743 5.20764C1.39464 5.49568 1.49281 5.77973 1.60693 6.05731C1.56657 6.01595 1.5277 5.97159 1.48335 5.93571C1.1968 5.701 0.843478 5.58937 0.499126 5.62824C0.553445 5.99801 0.747299 6.34136 1.03733 6.57907C1.31491 6.80581 1.65826 6.91296 1.99215 6.88505C2.12172 7.13671 2.25876 7.38339 2.40428 7.62309C2.35345 7.58472 2.30162 7.54585 2.24531 7.51545C1.90843 7.33355 1.51972 7.29718 1.17936 7.41429C1.30992 7.79352 1.57753 8.11395 1.92188 8.29983C2.15361 8.42442 2.40776 8.48173 2.65693 8.46678C2.74962 8.4603 2.83883 8.44186 2.92653 8.41744C3.31923 8.97359 3.74232 9.48738 4.1669 9.95831C4.14298 9.67973 4.16142 9.43206 4.19281 9.23522" transform="translate(16.55662 26.81601)" id="Fill-97" fill="#FFFFFF" stroke="none" />
    <path d="M0.313954 1.39435C0.450499 1.12924 0.580566 0.844684 0.705151 0.550664C0.583057 0.300997 0.38422 0.103156 0.130067 0C-0.0199333 0.32691 -0.0408635 0.695183 0.0707645 1.01711C0.12309 1.16462 0.212791 1.28571 0.313954 1.39435" transform="translate(28.56852 32.15497)" id="Fill-99" fill="#FFFFFF" stroke="none" />
    <path d="M0.273087 1.6186C0.440529 1.37442 0.617439 1.09485 0.796343 0.790365C0.719599 0.455481 0.525247 0.172425 0.245679 0C0.0363765 0.326412 -0.0448526 0.719102 0.0239181 1.08588C0.0607951 1.2887 0.154483 1.46362 0.273087 1.6186" transform="translate(27.73146 33.40186)" id="Fill-101" fill="#FFFFFF" stroke="none" />
    <path d="M0.43444 1.35199C0.534108 1.05797 0.6263 0.758472 0.70155 0.446013C0.547065 0.224751 0.328294 0.0637874 0.0676626 0C-0.041972 0.342359 -0.0175534 0.705648 0.134938 1.00714C0.206699 1.14867 0.315337 1.25781 0.43444 1.35199" transform="translate(29.14227 30.55874)" id="Fill-103" fill="#FFFFFF" stroke="none" />
    <path d="M0.574688 1.26429C0.620535 0.942857 0.64595 0.612957 0.654921 0.278073C0.480502 0.12309 0.264721 0.0209302 0.0215314 0C-0.040761 0.350332 0.0334915 0.703156 0.226349 0.973256C0.318542 1.10133 0.441631 1.19153 0.574688 1.26429" transform="translate(29.4298 28.87988)" id="Fill-105" fill="#FFFFFF" stroke="none" />
    <path d="M0.0254153 9.95831C0.450997 9.48738 0.874086 8.97309 1.26628 8.41744C1.35399 8.44186 1.44369 8.4603 1.53588 8.46678C1.78505 8.48173 2.0392 8.42442 2.27093 8.29983C2.61528 8.11395 2.88289 7.79352 3.01346 7.41429C2.67309 7.29718 2.28439 7.33306 1.94751 7.51545C1.8912 7.54585 1.83987 7.58472 1.78854 7.62259C1.93405 7.38339 2.0711 7.13671 2.20066 6.88505C2.53455 6.91296 2.87841 6.80581 3.15548 6.57907C3.44552 6.34136 3.63937 5.99801 3.69369 5.62824C3.34934 5.58887 2.99601 5.701 2.70997 5.93571C2.66512 5.97159 2.62625 6.01595 2.58638 6.05731C2.7 5.77973 2.79817 5.49568 2.88538 5.20764C3.21777 5.1598 3.53322 4.98688 3.76296 4.71379C4.00515 4.42625 4.13272 4.05598 4.11927 3.6897C3.76794 3.72458 3.43405 3.90548 3.19336 4.19252C3.15947 4.23289 3.13405 4.27824 3.10415 4.3206C3.15399 4.0505 3.18488 3.77442 3.20532 3.49635C3.49336 3.35133 3.84369 3.06429 3.99369 2.80166C4.18057 2.47525 4.23837 2.09352 4.15664 1.74369C3.81179 1.85033 3.51279 2.09402 3.32691 2.42143C3.28057 2.50166 3.24817 2.58638 3.21877 2.67259C3.20781 2.41346 3.1799 2.15233 3.13704 1.88821C3.30698 1.57924 3.37774 1.22691 3.32093 0.889535C3.25864 0.514286 3.04983 0.192857 2.74585 0C2.5211 0.33588 2.42841 0.743023 2.49269 1.12525C2.54153 1.41429 2.68256 1.66346 2.8814 1.85332C2.8814 1.85432 2.8809 1.85532 2.8809 1.85631L2.92375 1.89867C2.92824 3.49286 2.54153 6.52824 0 9.23522C0.0318937 9.43156 0.0498339 9.67924 0.0254153 9.95831" transform="translate(27.47108 26.81611)" id="Fill-107" fill="#FFFFFF" stroke="none" />
    <path d="M0.0199073 1.6941C0.0298741 1.7544 0.0438276 1.82367 0.0652561 1.90191C0.0757212 1.93829 0.0846914 1.97517 0.0976482 2.01105C0.200306 2.30905 0.327382 2.56919 0.472897 2.80939C0.829708 3.38198 1.45213 4.08563 2.53951 4.82716C2.94565 4.55008 3.28652 4.27849 3.57306 4.01586C4.18502 3.40042 4.68685 2.87118 4.98436 2.00407C4.98785 1.99261 4.99134 1.98115 4.99383 1.97018C5.04516 1.79726 5.06758 1.66121 5.07605 1.56703C5.10346 1.15889 4.97439 0.739286 4.68685 0.426827C4.16359 -0.142276 3.31542 -0.142276 2.79167 0.426827C2.68303 0.544435 2.6033 0.679983 2.53951 0.82201C2.47572 0.679983 2.39549 0.544435 2.28635 0.426827C1.7631 -0.142276 0.914924 -0.142276 0.392166 0.426827C0.0991432 0.743771 -0.0289299 1.17434 0.00545547 1.58995C0.00645214 1.6064 0.00894384 1.62334 0.0119339 1.64228C0.0139272 1.65972 0.0169173 1.67666 0.0199073 1.6941" transform="translate(21.58169 33.85684)" id="Fill-109" fill="#FFFFFF" stroke="none" />
    <path d="M12.9309 1.51196L13.2304 1.62658L13.2304 1.12425L13.2992 1.02708L13.5234 1.73821L13.8528 1.86478L13.5005 0.875083L13.8483 0.350831L13.5164 0.223754L13.3106 0.6299C13.2857 0.685216 13.2623 0.743522 13.2374 0.797342L13.2304 0.794352L13.2304 0.115116L12.9309 0L12.9309 1.51196ZM2.95565 2.05465L3.25166 1.93007L3.25166 1.32658L3.29701 1.30814C3.39419 1.26728 3.44153 1.30066 3.46844 1.47558C3.49136 1.63405 3.52525 1.77259 3.54568 1.80648L3.85465 1.67641C3.82774 1.63206 3.78688 1.46312 3.75748 1.30714C3.72807 1.15515 3.67625 1.08339 3.57259 1.08439L3.57259 1.0794C3.72608 0.945847 3.80731 0.765448 3.80731 0.603987C3.80731 0.47392 3.77791 0.385714 3.68522 0.34186C3.58854 0.295017 3.44153 0.331894 3.27907 0.400166C3.16595 0.448007 3.04884 0.508306 2.95565 0.565615L2.95565 2.05465ZM13.964 1.34103L13.964 0.407641L14.256 0.541196L14.256 1.52342C14.256 1.74568 14.3203 1.84236 14.3985 1.87824C14.4832 1.91661 14.543 1.88372 14.543 1.65448L14.543 0.672758L14.835 0.805814L14.835 1.73671C14.835 2.12492 14.688 2.26894 14.4005 2.13738C14.0865 1.99336 13.964 1.71977 13.964 1.34103ZM3.32392 0.610465C3.29701 0.621429 3.26761 0.636379 3.25166 0.649336L3.25166 1.10033L3.30598 1.07741C3.43455 1.02309 3.50681 0.889535 3.50681 0.757475C3.50681 0.627409 3.45498 0.559635 3.32392 0.610465ZM1.81495 2.59385L1.81495 1.08239L2.10498 0.945349L2.10498 1.55033L2.40797 1.40631L2.40797 0.801329L2.69801 0.663787L2.69801 2.17525L2.40797 2.31279L2.40797 1.6799L2.10498 1.82392L2.10498 2.45681L1.81495 2.59385ZM15.3399 2.55698L15.3399 2.21811C15.3399 1.91362 15.3284 1.67492 15.3194 1.51944L15.3239 1.52093C15.3603 1.67043 15.4281 1.8912 15.4799 2.0402L15.7136 2.71047L15.9852 2.82159L15.9852 1.30963L15.7251 1.20299L15.7251 1.53688C15.7251 1.81545 15.7455 2.08605 15.7545 2.2495L15.75 2.24751C15.7066 2.0995 15.6344 1.87475 15.5865 1.73821L15.3513 1.05L15.0792 0.938372L15.0792 2.45033L15.3399 2.55698ZM1.56927 1.79103L1.21395 1.91063L1.21395 1.56329L1.5897 1.43671L1.5897 1.18056L0.910465 1.4103L0.910465 2.92176L1.61561 2.68405L1.61561 2.42841L1.21395 2.56395L1.21395 2.15532L1.56927 2.03522L1.56927 1.79103ZM16.4407 2.96312C16.3126 2.92874 16.19 2.86445 16.1352 2.8201L16.1806 2.5794C16.2444 2.62973 16.3555 2.68455 16.4427 2.70847C16.5872 2.74734 16.6605 2.69502 16.6605 2.59635C16.6605 2.48671 16.5892 2.41395 16.4547 2.29435C16.2369 2.10997 16.1542 1.92807 16.1542 1.79153C16.1542 1.54934 16.3246 1.39286 16.6555 1.48256C16.7621 1.51146 16.8613 1.56528 16.9066 1.60415L16.8568 1.84435C16.812 1.80498 16.7432 1.76163 16.6555 1.73821C16.5234 1.70233 16.4596 1.76163 16.4596 1.84236C16.4596 1.93206 16.5065 1.99186 16.6769 2.13638C16.8897 2.31578 16.9654 2.48821 16.9654 2.64767C16.9654 2.92326 16.7502 3.04684 16.4407 2.96312ZM0.725581 2.97708L0 3.13355L0 1.62159L0.313455 1.55382L0.313455 2.81661L0.725581 2.72841L0.725581 2.97708ZM17.3367 3.15648L17.6537 3.20731L17.6537 1.96694L17.9437 2.01329L17.9437 1.74169L17.0487 1.59817L17.0487 1.86977L17.3367 1.91611L17.3367 3.15648ZM6.64585 3.43206L6.64585 2.39452L7.00066 2.42542L7.00066 3.51777C7.00066 3.76495 7.0789 3.84668 7.17359 3.85465C7.27674 3.86362 7.3495 3.80282 7.3495 3.54817L7.3495 2.45581L7.70432 2.48671L7.70432 3.52176C7.70432 3.95382 7.52542 4.17209 7.17658 4.14169C6.79485 4.10831 6.64585 3.85365 6.64585 3.43206ZM9.71661 4.15963C9.60249 4.1686 9.49136 4.1686 9.4206 4.16462L9.4206 2.51611C9.5103 2.48821 9.64086 2.46429 9.78189 2.45282C10.0126 2.43339 10.1726 2.47027 10.2892 2.55997C10.4467 2.67658 10.5284 2.89186 10.5284 3.21827C10.5284 3.55764 10.4332 3.80781 10.2733 3.95083C10.1482 4.06844 9.96927 4.1387 9.71661 4.15963ZM8.32276 4.18106L8.32276 3.80482C8.32276 3.46495 8.3093 3.20631 8.29834 3.03588L8.30382 3.03588C8.34718 3.18588 8.4289 3.40066 8.49169 3.54319L8.77176 4.18256L9.09867 4.18355L9.09867 2.50266L8.78571 2.50166L8.78571 2.87292C8.78571 3.18189 8.81013 3.47392 8.8211 3.65083L8.81561 3.65083C8.76379 3.50631 8.67658 3.28904 8.61977 3.15947L8.33621 2.50017L8.0098 2.49917L8.0098 4.18056L8.32276 4.18106ZM9.77641 2.72292C9.79784 2.71346 9.82226 2.71196 9.84718 2.70947C10.0615 2.69153 10.1591 2.89286 10.1591 3.23671C10.1591 3.70066 10.0096 3.86811 9.83871 3.88256C9.8355 3.88273 9.83213 3.88294 9.82866 3.88316C9.81165 3.88423 9.79214 3.88546 9.77641 3.88256L9.77641 2.72292Z" transform="translate(15.62551 13.47698)" id="Fill-111" fill="#FFFFFF" fill-rule="evenodd" stroke="none" />
    <path d="M0 17.0138C0 7.63256 7.63355 0 17.0163 0C26.3975 0 34.0291 7.63256 34.0291 17.0138C34.0291 26.395 26.3975 34.0286 17.0163 34.0286C7.63355 34.0286 0 26.395 0 17.0138ZM8.60382 5.12093L9.18439 6.47591C9.61694 6.30598 10.0869 6.09269 10.6012 5.81561C13.7701 4.10781 15.5457 4.52243 15.5457 5.27691C15.5457 6.03189 13.2 5.85847 13.2 6.75698C13.2 7.24635 14.9417 7.64452 17.101 7.651C19.2593 7.64452 21.001 7.24635 21.001 6.75698C21.001 5.85847 18.6553 6.03189 18.6553 5.27691C18.6553 4.52243 20.4319 4.10781 23.6008 5.81561C24.1071 6.08821 24.5706 6.2985 24.9977 6.46794L25.5982 5.12093L28.5154 5.12093L27.7829 6.3588C28.1292 6.71412 28.3032 7.00116 28.3032 7.00116L28.3007 7.00266L26.1543 9.78887C24.7684 9.6603 23.6282 9.08272 23.6282 9.08272L23.6008 9.07076C22.637 8.551 21.6977 8.23007 21.002 8.05316L21.002 9.69369C21.002 10.188 19.338 10.5882 17.1548 10.5882C14.9706 10.5882 13.2 10.188 13.2 9.69369L13.2 8.02674C12.4844 8.19718 11.6148 8.52409 10.6012 9.07076C9.48837 9.57309 8.64369 9.74801 8.04668 9.78737L5.89934 7.00116C5.89934 7.00116 6.07326 6.71412 6.4191 6.3593L5.68605 5.12093L8.60382 5.12093ZM28.2877 18.2796L5.78123 18.2796C5.38804 16.5917 5.17525 14.836 5.17525 13.0296C5.17525 12.305 5.2201 11.5909 5.28588 10.8827C5.46229 11.0537 6.02841 11.5037 7.14917 11.5037L13.7761 11.5037C16.5453 11.5037 17.0337 12.4684 17.0337 12.4684C17.0337 12.4684 17.5236 11.5037 20.2929 11.5037L26.9198 11.5037C28.04 11.5037 28.6076 11.0537 28.7836 10.8827C28.8488 11.5909 28.8937 12.305 28.8937 13.0296C28.8937 14.836 28.6804 16.5917 28.2877 18.2796ZM5.90482 18.7988C7.49651 24.9782 11.5809 30.1684 17.0337 33.2551C22.4885 30.1684 26.5724 24.9782 28.1636 18.7988L5.90482 18.7988Z" transform="translate(7.076362 7.680798)" id="Fill-113" fill="#FFFFFF" fill-rule="evenodd" stroke="none" />
  </g>
</svg>