<?xml version="1.0" encoding="utf-8"?>
<svg width="13px" height="14px" viewBox="0 0 13 14" version="1.1" xmlns:xlink="http://www.w3.org/1999/xlink" xmlns="http://www.w3.org/2000/svg">
  <path d="M9.04378 0.896387C12.3017 2.77737 13.418 6.94331 11.537 10.2013C9.65603 13.4592 5.49009 14.5755 2.23213 12.6945C1.31008 12.1622 0.559569 11.4468 0 10.6208C2.66454 11.206 5.51229 10.0405 6.94886 7.5523C8.38543 5.06409 7.9709 2.01511 6.13257 0C7.12694 0.0717628 8.12173 0.364038 9.04378 0.896387Z" id="fill" fill="#323237" stroke="none" />
</svg>