<?xml version="1.0" encoding="utf-8"?>
<svg width="16px" height="18px" viewBox="0 0 16 18" version="1.1" xmlns:xlink="http://www.w3.org/1999/xlink" xmlns="http://www.w3.org/2000/svg">
  <path d="M12.375 11.25C13.3125 11.25 14.1094 11.5781 14.7656 12.2344C15.4219 12.8906 15.75 13.6875 15.75 14.625C15.75 15.5625 15.4219 16.3594 14.7656 17.0156C14.1094 17.6719 13.3125 18 12.375 18C11.4375 18 10.6406 17.6719 9.98438 17.0156C9.32812 16.3594 9 15.5625 9 14.625C9 14.3672 9.02344 14.1211 9.07031 13.8867L5.48438 11.6367C4.875 12.1289 4.17188 12.375 3.375 12.375C2.4375 12.375 1.64063 12.0469 0.984375 11.3906C0.328122 10.7344 0 9.9375 0 9C0 8.0625 0.328122 7.26563 0.984375 6.60938C1.64063 5.95312 2.4375 5.625 3.375 5.625C4.17188 5.625 4.875 5.87109 5.48438 6.36328L9.07031 4.11328C9.02344 3.87891 9 3.63281 9 3.375C9 2.4375 9.32812 1.64063 9.98438 0.984375C10.6406 0.328122 11.4375 0 12.375 0C13.3125 0 14.1094 0.328122 14.7656 0.984375C15.4219 1.64063 15.75 2.4375 15.75 3.375C15.75 4.3125 15.4219 5.10937 14.7656 5.76563C14.1094 6.42188 13.3125 6.75 12.375 6.75C11.5781 6.75 10.875 6.50391 10.2656 6.01172L6.67969 8.26172C6.77344 8.75391 6.77344 9.24609 6.67969 9.73828L10.2656 11.9883C10.875 11.4961 11.5781 11.25 12.375 11.25Z" id="fill" fill="#1D1D21" stroke="none" />
</svg>