<?xml version="1.0" encoding="utf-8"?>
<!-- Generator: Adobe Illustrator 24.2.1, SVG Export Plug-In . SVG Version: 6.00 Build 0)  -->
<svg version="1.1" id="Layer_1" xmlns="http://www.w3.org/2000/svg" xmlns:xlink="http://www.w3.org/1999/xlink" x="0px" y="0px"
	 viewBox="0 0 144 144" style="enable-background:new 0 0 144 144;" xml:space="preserve">
<style type="text/css">
	.st0{fill:#AFAFAE;}
</style>
<g>
	<path class="st0" d="M71.7,142c-38.4,0-69.7-31.3-69.7-69.7c0-38.4,31.3-69.7,69.7-69.7c38.4,0,69.7,31.3,69.7,69.7
		C141.4,110.7,110.2,142,71.7,142z M71.7,5.2c-37,0-67.1,30.1-67.1,67.1c0,37,30.1,67.1,67.1,67.1s67.1-30.1,67.1-67.1
		C138.8,35.3,108.7,5.2,71.7,5.2z"/>
</g>
<g>
	<polygon class="st0" points="69.6,109.6 39.8,86.6 41.4,84.6 68.7,105.6 102.9,34.3 105.2,35.4 	"/>
</g>
</svg>
