<svg id="arrow-right" xmlns="http://www.w3.org/2000/svg" width="24" height="24" viewBox="0 0 24 24">
  <defs>
    <style>
      .cls-1 {
        fill: #231f20;
      }
    </style>
  </defs>
  <path id="icon" class="cls-1" d="M13.973.19a.646.646,0,0,0-.055.858l.055.061,4.785,4.74H.656a.65.65,0,0,0-.077,1.3l.077,0h18.1l-4.785,4.74a.646.646,0,0,0-.055.858l.055.061a.661.661,0,0,0,.866.054l.062-.054,5.906-5.85a.657.657,0,0,0,.063-.073l.047-.072.035-.073.023-.068.016-.076,0-.038L21,6.5l0-.049-.011-.082L20.967,6.3l-.029-.072L20.9,6.162l-.042-.06-.055-.061L14.9.19A.661.661,0,0,0,13.973.19Z" transform="translate(2 6)"/>
</svg>
